<?xml version="1.0" standalone="no"?>
<!DOCTYPE svg PUBLIC "-//W3C//DTD SVG 20010904//EN"
 "http://www.w3.org/TR/2001/REC-SVG-20010904/DTD/svg10.dtd">
<svg version="1.0" xmlns="http://www.w3.org/2000/svg"
 width="512.000000pt" height="512.000000pt" viewBox="0 0 512.000000 512.000000"
 preserveAspectRatio="xMidYMid meet">
<metadata>
Created by potrace 1.14, written by Peter Selinger 2001-2017
</metadata>
<g transform="translate(0.000000,512.000000) scale(0.100000,-0.100000)"
fill="#000000" stroke="none">
<path d="M1460 4053 c-266 -23 -488 -158 -663 -402 -151 -209 -284 -527 -352
-841 -2 -8 -12 -53 -23 -100 -11 -47 -23 -107 -27 -133 -3 -27 -8 -56 -10 -65
-1 -10 -8 -53 -15 -97 -6 -44 -13 -91 -15 -105 -2 -14 -7 -56 -11 -95 -3 -38
-8 -83 -10 -100 -3 -16 -6 -120 -8 -230 -4 -169 -1 -214 15 -290 38 -182 103
-317 195 -408 157 -155 399 -163 669 -24 92 48 301 186 378 249 51 42 72 61
192 169 164 149 308 209 595 249 86 12 295 16 360 6 19 -2 58 -8 85 -11 97
-13 223 -54 328 -106 93 -48 165 -99 263 -190 253 -235 494 -383 714 -439 146
-37 266 -30 374 24 150 76 249 253 285 512 19 133 22 180 23 304 0 128 -9 247
-28 375 -3 22 -8 54 -10 70 -25 166 -110 539 -159 694 -157 494 -428 841 -740
948 -114 40 -275 53 -385 33 -25 -5 -65 -11 -89 -15 -45 -7 -280 -61 -381 -88
-178 -48 -335 -71 -480 -71 -95 1 -138 6 -245 32 -71 18 -139 34 -150 37 -122
25 -253 55 -265 59 -8 3 -28 7 -45 10 -16 2 -55 9 -85 16 -107 21 -204 29
-280 23z m275 -184 c61 -11 223 -47 360 -80 306 -73 283 -68 382 -75 162 -12
350 19 733 121 99 26 274 52 365 54 261 5 418 -72 587 -286 121 -154 194 -305
288 -597 65 -201 98 -337 140 -571 76 -432 72 -746 -11 -971 -96 -258 -312
-306 -629 -138 -107 57 -203 127 -377 272 -322 269 -468 349 -693 377 -30 4
-64 9 -75 11 -11 2 -58 6 -105 10 -466 33 -795 -68 -1070 -330 -140 -134 -373
-300 -515 -367 -266 -125 -449 -88 -551 112 -63 125 -83 261 -79 524 3 110 6
211 9 225 2 14 7 48 10 75 7 50 10 73 21 155 25 175 104 498 171 697 105 317
284 587 465 706 49 31 160 76 224 89 57 12 249 5 350 -13z"/>
<path d="M3451 3569 c-85 -16 -167 -84 -201 -167 -35 -90 -9 -213 62 -284 208
-208 546 30 424 298 -52 113 -165 174 -285 153z m118 -188 c29 -27 34 -37 34
-76 0 -35 -5 -44 -35 -74 -42 -41 -90 -42 -137 -3 -27 22 -34 37 -36 68 -5 70
35 112 106 113 27 1 45 -7 68 -28z"/>
<path d="M1424 3397 c-47 -9 -87 -39 -114 -82 -17 -28 -22 -53 -23 -117 l-2
-82 -83 -1 c-74 -2 -87 -5 -124 -31 -68 -48 -80 -83 -80 -233 0 -71 5 -144 11
-163 17 -52 73 -100 134 -114 4 -1 38 -2 75 -3 l68 -1 1 -78 c1 -84 14 -121
56 -160 43 -40 90 -50 232 -48 110 2 137 5 161 20 70 45 94 95 94 196 l0 70
68 1 c88 1 97 3 142 33 64 42 79 89 78 241 -1 147 -6 169 -51 215 -42 42 -67
51 -157 54 l-75 3 -5 85 c-6 99 -29 143 -93 179 -34 18 -56 22 -158 23 -65 0
-135 -2 -155 -7z m229 -156 c15 -1 17 -13 17 -115 0 -106 2 -117 23 -142 23
-26 27 -27 133 -29 60 0 114 -4 120 -8 7 -4 11 -44 10 -109 l-1 -103 -122 -5
c-160 -7 -156 -3 -163 -163 l-5 -122 -100 -1 c-55 0 -104 1 -110 3 -6 2 -10
47 -9 111 1 163 -6 171 -163 172 -72 0 -114 4 -119 11 -7 12 -7 195 0 208 3 4
51 6 108 6 113 -2 151 10 164 47 5 13 9 68 10 123 2 123 1 113 21 117 14 2
112 2 186 -1z"/>
<path d="M2925 3086 c-200 -92 -204 -385 -7 -483 27 -13 60 -18 117 -18 69 0
86 4 127 27 149 88 183 277 72 406 -76 89 -204 117 -309 68z m158 -147 c75
-39 77 -150 3 -185 -74 -36 -151 11 -151 93 0 38 5 49 33 74 35 31 77 38 115
18z"/>
<path d="M3870 3095 c-104 -33 -173 -134 -173 -253 0 -77 17 -123 63 -176 43
-49 96 -75 168 -82 180 -19 315 119 290 299 -23 169 -179 264 -348 212z m134
-157 c79 -35 76 -155 -5 -189 -40 -16 -96 -2 -121 31 -66 90 25 205 126 158z"/>
<path d="M3430 2640 c-110 -32 -190 -131 -196 -243 -11 -200 190 -338 373
-257 92 41 141 112 150 219 10 121 -44 218 -145 263 -47 21 -141 30 -182 18z
m143 -192 c24 -28 28 -40 24 -75 -5 -50 -20 -71 -63 -89 -51 -21 -104 0 -132
53 -38 71 31 161 113 148 17 -3 42 -19 58 -37z"/>
</g>
</svg>
